Numero entrada: 1000
elapsed CPU time:0.022004

Numero entrada: 1000
elapsed CPU time:0.016650

Numero entrada: 1000
elapsed CPU time:0.015724

Numero entrada: 1000
elapsed CPU time:0.015979

Numero entrada: 1000
elapsed CPU time:0.017075

Numero entrada: 1000
elapsed CPU time:0.014675

Numero entrada: 3000
elapsed CPU time:0.332087

Numero entrada: 3000
elapsed CPU time:0.329843

Numero entrada: 3000
elapsed CPU time:0.292202

Numero entrada: 3000
elapsed CPU time:0.321350

Numero entrada: 3000
elapsed CPU time:0.296631

Numero entrada: 3000
elapsed CPU time:0.327528

Numero entrada: 4000
elapsed CPU time:0.787134

Numero entrada: 4000
elapsed CPU time:0.762992

Numero entrada: 4000
elapsed CPU time:0.760494

Numero entrada: 4000
elapsed CPU time:0.785393

Numero entrada: 4000
elapsed CPU time:0.788440

Numero entrada: 4000
elapsed CPU time:0.777644

Numero entrada: 4000
elapsed CPU time:0.781862

Numero entrada: 4000
elapsed CPU time:0.793847

Numero entrada: 4000
elapsed CPU time:0.785694

Numero entrada: 4000
elapsed CPU time:0.767721

Numero entrada: 4000
elapsed CPU time:0.779429

Numero entrada: 4000
elapsed CPU time:0.783251

Numero entrada: 5000
elapsed CPU time:0.980369

Numero entrada: 5000
elapsed CPU time:0.996404

Numero entrada: 5000
elapsed CPU time:0.989204

Numero entrada: 5000
elapsed CPU time:0.988407

Numero entrada: 5000
elapsed CPU time:1.000437

Numero entrada: 5000
elapsed CPU time:0.963989

Numero entrada: 5000
elapsed CPU time:1.101370

Numero entrada: 5000
elapsed CPU time:1.200502

Numero entrada: 5000
elapsed CPU time:1.223818

Numero entrada: 5000
elapsed CPU time:1.104407

Numero entrada: 5000
elapsed CPU time:1.107161

Numero entrada: 5000
elapsed CPU time:1.102251

Numero entrada: 1000
elapsed CPU time:0.016949

Numero entrada: 1000
elapsed CPU time:0.017795

Numero entrada: 1000
elapsed CPU time:0.017182

Numero entrada: 1000
elapsed CPU time:0.017728

Numero entrada: 1000
elapsed CPU time:0.019579

Numero entrada: 1000
elapsed CPU time:0.018676

Numero entrada: 3000
elapsed CPU time:0.291696

Numero entrada: 3000
elapsed CPU time:0.355573

Numero entrada: 3000
elapsed CPU time:0.284604

Numero entrada: 3000
elapsed CPU time:0.342071

Numero entrada: 3000
elapsed CPU time:0.389720

Numero entrada: 3000
elapsed CPU time:0.295830

Numero entrada: 4000
elapsed CPU time:0.807284

Numero entrada: 4000
elapsed CPU time:0.805351

Numero entrada: 4000
elapsed CPU time:0.838067

Numero entrada: 4000
elapsed CPU time:0.843514

Numero entrada: 4000
elapsed CPU time:0.804055

Numero entrada: 4000
elapsed CPU time:0.806578

Numero entrada: 4000
elapsed CPU time:0.816202

Numero entrada: 4000
elapsed CPU time:0.815374

Numero entrada: 4000
elapsed CPU time:0.809828

Numero entrada: 4000
elapsed CPU time:0.817039

Numero entrada: 4000
elapsed CPU time:0.768502

Numero entrada: 4000
elapsed CPU time:0.816547

Numero entrada: 5000
elapsed CPU time:1.135771

Numero entrada: 5000
elapsed CPU time:1.093156

Numero entrada: 5000
elapsed CPU time:1.143065

Numero entrada: 5000
elapsed CPU time:1.050769

Numero entrada: 5000
elapsed CPU time:1.059972

Numero entrada: 5000
elapsed CPU time:1.022432

Numero entrada: 5000
elapsed CPU time:1.051451

Numero entrada: 5000
elapsed CPU time:1.090362

Numero entrada: 5000
elapsed CPU time:1.115745

Numero entrada: 5000
elapsed CPU time:1.094866

Numero entrada: 5000
elapsed CPU time:1.085962

Numero entrada: 5000
elapsed CPU time:1.038723

Numero entrada: 10000
elapsed CPU time:5.851737

Numero entrada: 11000
elapsed CPU time:7.019021

Numero entrada: 12000
elapsed CPU time:8.725613

Numero entrada: 13000
elapsed CPU time:9.925086

Numero entrada: 14000
elapsed CPU time:12.030957

Numero entrada: 15000
elapsed CPU time:14.647059

Numero entrada: 16000
elapsed CPU time:17.792364

Numero entrada: 17000
elapsed CPU time:19.856348

Numero entrada: 18000
elapsed CPU time:22.301798

Numero entrada: 19000
elapsed CPU time:25.199144

